^C:\USERS\ZOTIC\SOURCE\REPOS\PROJECT15.1\PROJECT15.1\X64\DEBUG\SOURCE.OBJ
C:\USERS\ZOTIC\SOURCE\REPOS\PROJECT15.1\X64\DEBUG\PROJECT15.1.EXE
C:\USERS\ZOTIC\SOURCE\REPOS\PROJECT15.1\X64\DEBUG\PROJECT15.1.PDB
